{
  "parent": "minecraft:item/generated",
  "display": {
    "thirdperson_righthand": {
      "rotation": [
        -90,
        260,
        -90
      ],
      "translation": [
        0,
        -0.4,
        -1
      ],
      "scale": [
        0.7,
        0.7,
        0.7
      ]
    },
    "firstperson_righthand": {
      "rotation": [
        0,
        -100,
        0
      ],
      "translation": [
        1.13,
        3.2,
        1.13
      ],
      "scale": [
        0.88,
        0.88,
        0.88
      ]
    }
  },
  "textures": {
    "layer0": "counter_guns:items/desert_eagle"
  }
}